R Bootcamp Assignment: Prediction of the price of second hand cars
…
Calculate average price for cars of different brands:

dfPrizeMean <- df.cars %>%
   group_by(brand) %>%
   summarize(meanPrice = mean(price))
dfPrizeMean

## # A tibble: 34 x 2
##    brand      meanPrice
##    <chr>          <dbl>
##  1 alfa_romeo     114. 
##  2 audi           151. 
##  3 bmw            152. 
##  4 chevrolet      101. 
##  5 chrysler       140. 
##  6 citroen        101. 
##  7 dacia           94.1
##  8 fiat            92.3
##  9 ford           113. 
## 10 honda          110. 
## # ... with 24 more rows
…
